{
    "com.plugin.datepicker": {
        "source": {
            "type": "git",
            "url": "https://github.com/VitaliiBlagodir/cordova-plugin-datepicker",
            "subdir": "."
        }
    }
}